<svg 
 xmlns="http://www.w3.org/2000/svg"
 xmlns:xlink="http://www.w3.org/1999/xlink"
 width="5.009cm" height="2.752cm">
<text font-family="Pacifico" fill="rgb(156, 28, 14)" transform="matrix( 1.54192860904595, 0, 0, 1.53312476067704,0.88079650363522, 50.4984357050778)" font-size="39.136px">Logo</text>
</svg>